{
  "type": "service_account",
  "project_id": "api-8483944464510500535-870331",
  "private_key_id": "79d67cfa0bd677704655f6a0af75cc7b8c29aacc",
  "private_key": "-----BEGIN PRIVATE KEY-----\nMIIEvgIBADANBgkqhkiG9w0BAQEFAASCBKgwggSkAgEAAoIBAQC5aWbOqQK1mtjY\nPvbA514mErGjXj0a9feXseNjxICXhmqVD1dmO6qD5+VksRpsIWh+Tqy2DFVuHwtB\nIKdH4Av2RgSUHYlsIkjQvH3S7Q6eT/BtiyWCll5915H/2SJECPh8urLlWXrjJKHZ\npbaJfK8W2LDRoI/keWYsbE6silJM94Clex3ZcSqk/TUHIl/c4J12FcznBJJoCSAK\nktu8s84Oq/aA71weeW7l5Hx0I1r1yH/1UyAHxaGff3XjSEnzSGUTHQWfAhQKqBeR\nT4zzp0r3XclMD1lWdi8LbF4fBZ019qZuexjmITuzBZs/1tEXaYqZEmbcb0F9TIEZ\nMsgImR7zAgMBAAECggEAOJuWmNf/DMU3GWa33ZOGKieg9pjqHRYlvrnADBDNlfWj\nCtmBPKRQ3i7p2YE86PCWP6Hzly1S0+lEfWDj0cz0uf8MnNAbydj51EkIPWLFCM6t\nQDSwghs4xEERwURg8tauTx6NSfq0yy6+/31ZqsZXiqkj6wyTghUSfdOffYxJrleI\nsCLAPhbpOYejM9JCJUlPGsVKAXFbehvq9cZom3NyVnKfs0RNi4tqeZdQ1Dg1Can1\nUR+a1tsJgbcIxaXIbYJVU1Bi697keGS+mU8LiHqoLbMwYWF4Mpux77BkaLF1nokn\nY0YRlX1hg8wtC/Pmib13gPY5VAi/Ux9N+tHnjoNaIQKBgQDyoPojBv+qjuv+sayI\nzPjkPbeH4FkfskavdoglSyEbDtKBBWlMet5EQiKyCic+HaBDSvGNJPU/YoCFZCPI\nwsNwNEMZaIt3mmUudGfpOEnI42ZWK/ZDTxQehllgp7il2Ns8jV6xcfgjuoeO/dyF\nPIkNAyXTEyXEnDVfH/5BA1ZFQwKBgQDDoTO8cHnTS1gfEWolhbIpbLedXGY4LuPv\nJ9lY+8aYahFXn0VP1Gqp0Hm9rUg1pClTIZYLHtIRZQWpuRSjidA9bmF5hZkc4FLJ\n0UhacJSawObUNq6HN/BHQu/A5aCIxTQ1tjS9lxof0vVA+yzQgqKM7ulcurakyUJq\nEUKE/mRMkQKBgQC0h1h21Y9H3b30rUi+JR0P3mf/nstRjTmQ9rYIYaVJV7cDLv6R\nXF6jFT5xkKJwUmTbjRi7t4MPXYBZQBBsIZZ/lzNR5XrYTDX64bwrSKmF4sVTWrSK\nkn1a1QYNp9348Kj3ngyWJUHHe9O/bl41eLxUxUHQks+oQb5ogAqTXyNCtwKBgC1z\n9+xRicyxFdFqH2qGbMW5L9RNEqb9JhJ8BMDrBtKE2nCsXdNVfE7mVFLgvwVPlhZt\nmEoPKCnIeg9cJFJ3A74yNk2g39lYuYOQr6nrvGtUZI1sAxMByT8Va1U7RRhiEWZl\nZk2inPxF7JvjgB8WKyRpoijcbPFOnbK9PeJepPkxAoGBAKJgE2GHXTICnKITfg1G\nqKk7Eyco+weL8nKEA8cmk6wxCits9O9BFpjbNdnqNRDBw/0RqXQ65E1wkPODUn1Y\nvp76RAtaMx8oEgUAJlkkSG04lOB/5QqKcHglP5C+Jvvl7XY31+rFkM21o/R43WHc\nH7QM+3QTG7l1Sz1fCyIlkpX0\n-----END PRIVATE KEY-----\n",
  "client_email": "temp-app-subscription@api-8483944464510500535-870331.iam.gserviceaccount.com",
  "client_id": "109324394415252085593",
  "auth_uri": "https://accounts.google.com/o/oauth2/auth",
  "token_uri": "https://oauth2.googleapis.com/token",
  "auth_provider_x509_cert_url": "https://www.googleapis.com/oauth2/v1/certs",
  "client_x509_cert_url": "https://www.googleapis.com/robot/v1/metadata/x509/temp-app-subscription%40api-8483944464510500535-870331.iam.gserviceaccount.com"
}
